<?xml version="1.0" encoding="UTF-8"?>
<svg width="1213px" height="452px" viewBox="0 0 1213 452" version="1.1" xmlns="http://www.w3.org/2000/svg" xmlns:xlink="http://www.w3.org/1999/xlink">
    <title>12</title>
    <g id="Page-1" stroke="none" stroke-width="1" fill="none" fill-rule="evenodd">
        <g id="Coming-soon-1" transform="translate(0.000000, -572.000000)" fill="#F9FBFC">
            <path d="M-227,792.5 C8.10753119,543.020911 248.107531,505.354244 493,679.5 C737.892469,853.645756 977.892469,968.479089 1213,1024 L-227,1024 L-227,792.5 Z" id="12"></path>
        </g>
    </g>
</svg>